Load=[Layer1]

Load=[SolidTiles]
[0,0]
[1,0]
[---]
[3,0]
[4,0]
[5,0]
[6,0]
[7,0]
[8,0]
[9,0]
[10,0]
[11,0]
[12,0]
[13,0]
[14,0]
[15,0]
[16,0]
[17,0]
[18,0]
[19,0]
[20,0]
[21,0]

Load=[TileSheet]
[Images/TileSheets/map11.png]

Load=[Background]
[Images/Backgrounds/Map6.png]

Load=[StartLayer]
[1,0][---][---][---][---][---][---][---][---][---][---][---][---][---][---][---][---][---][---][---][---][---][---][---][---][---][---][---][---][---][---][---][---][---][---][---][---][---][---][---][---][---][---][---][---][---][---][---][---][---][---][---][---][---][---][---][---][---][---][---][---][---][---][---][---][---][---][---][---][---][---][---][---][---][---][---][---][---][---][---][---][---][---][---][---][---][---][---][---][---][---][---][---][---][---][---][---][---][---][---][---][---][---][---][---][---][---][---][---][---][---][---][---][---][---][---][---][---][---][---][---][---][---][---][---][---][---][---][---][---][---][---][---][---][---][---][---][---][---][---][---][---][---][---][---][---][---][---][---][---][---][---][---][---][---][---][---][---][---][---][---][---][---][---][---][---][---][---][---][---][---][---][---][---][---][---][---][---][---][---][---][---][---][---][---][---][---][---][---][---][---][---][---][---][---][---][---][---][---][---][---][---][---][---][---][---][---][---][---][---][---]
[1,0][---][---][---][---][---][---][---][---][---][---][---][---][---][---][---][---][---][---][---][---][---][---][---][---][---][---][---][---][---][---][---][---][---][---][---][---][---][---][---][---][---][---][---][---][---][---][---][---][---][---][---][---][---][---][---][---][---][---][---][---][---][---][---][---][---][---][---][---][---][---][---][---][---][---][---][---][---][---][---][---][---][---][---][---][---][---][---][---][---][---][---][---][---][---][---][---][---][---][---][---][---][---][---][---][---][---][---][---][---][---][---][---][---][---][---][---][---][---][---][---][---][---][---][---][---][---][---][---][---][---][---][---][---][---][---][---][---][---][---][---][---][---][---][---][---][---][---][---][---][---][---][---][---][---][---][---][---][---][---][---][---][---][---][---][---][---][---][---][---][---][---][---][---][---][---][---][---][---][---][---][---][---][---][---][---][---][---][---][---][---][---][---][---][---][---][---][---][---][---][---][---][---][---][---][---][---][---][---][---][---]
[1,0][---][---][---][---][---][---][---][---][---][---][---][---][---][---][---][---][---][---][---][---][---][---][---][---][---][---][---][---][---][---][---][---][---][---][---][---][---][---][---][---][---][---][---][---][---][---][---][---][---][---][---][---][---][---][---][---][---][---][---][---][---][---][---][---][---][---][---][---][---][---][---][---][---][---][---][---][---][---][---][---][---][---][---][---][---][---][---][---][---][---][---][---][---][---][---][---][---][---][---][---][---][---][---][---][---][---][---][---][---][---][---][---][---][---][---][---][---][---][---][---][---][---][---][---][---][---][---][---][---][---][---][---][---][---][---][---][---][---][---][---][---][---][---][---][---][---][---][---][---][---][---][---][---][---][---][---][---][---][---][---][---][---][---][---][---][---][---][---][---][---][---][---][---][---][---][---][---][---][---][---][---][---][---][---][---][---][---][---][---][---][---][---][---][---][---][---][---][---][---][---][---][---][---][---][---][---][---][---][---][---]
[1,0][---][---][---][---][---][---][---][---][---][---][---][---][---][---][---][---][---][---][---][---][---][---][---][---][---][---][---][---][---][---][---][---][---][---][---][---][---][---][---][---][---][---][---][---][---][---][---][---][---][---][---][---][---][---][---][---][---][---][---][---][---][---][---][---][---][---][---][---][---][---][---][---][---][---][---][---][---][---][---][---][---][---][---][---][---][---][---][---][---][---][---][---][---][---][---][---][---][---][---][---][---][---][---][---][---][---][---][---][---][---][---][---][---][---][---][---][---][---][---][---][---][---][---][---][---][---][---][---][---][---][---][---][---][---][---][---][---][---][---][---][---][---][---][---][---][---][---][---][---][---][---][---][---][---][---][---][---][---][---][---][---][---][---][---][---][---][---][---][---][---][---][---][---][---][---][---][---][---][---][---][---][---][---][---][---][---][---][---][---][---][---][---][---][---][---][---][---][---][---][---][---][---][---][---][---][---][---][---][---][---]
[1,0][---][---][---][---][---][---][---][---][---][---][---][---][---][---][---][---][---][---][---][---][---][---][---][---][---][---][---][---][---][---][---][---][---][---][---][---][---][---][---][---][---][---][---][---][---][---][---][---][---][---][---][---][---][---][---][---][---][---][---][---][---][---][---][---][---][---][---][---][---][---][---][---][---][---][---][---][---][---][---][---][---][---][---][---][---][---][---][---][---][---][---][---][---][---][---][---][---][---][---][---][---][---][---][---][---][---][---][---][---][---][---][---][---][---][---][---][---][---][---][---][---][---][---][---][---][---][---][---][---][---][---][---][---][---][---][---][---][---][---][---][---][---][---][---][---][---][---][---][---][---][---][---][---][---][---][---][---][---][---][---][---][---][---][---][---][---][---][---][---][---][---][---][---][---][---][---][---][---][---][---][---][---][---][---][---][---][---][---][---][---][---][---][---][---][---][---][---][---][---][---][---][---][---][---][---][---][---][---][---][---]
[1,0][---][---][---][---][---][---][---][---][---][---][---][---][---][---][---][---][---][---][---][---][---][---][---][---][---][---][---][---][---][---][---][---][---][---][---][---][---][---][---][---][---][---][---][---][---][---][---][---][---][---][---][---][---][---][---][---][---][---][---][---][---][---][---][---][---][---][---][---][---][---][---][---][---][---][---][---][---][---][---][---][---][---][---][---][---][---][---][---][---][---][---][---][---][---][---][---][---][---][---][---][---][---][---][---][---][---][---][---][---][---][---][---][---][---][---][---][---][---][---][---][---][---][---][---][---][---][---][---][---][---][---][---][---][---][---][---][---][---][---][---][---][---][---][---][---][---][---][---][---][---][---][---][---][---][---][---][---][---][---][---][---][---][---][---][---][---][---][---][---][---][---][---][---][---][---][---][---][---][---][---][---][---][---][---][---][---][---][---][---][---][---][---][---][---][---][---][---][---][---][---][---][---][---][---][---][---][---][---][---][---]
[1,0][---][---][---][---][---][---][---][---][---][---][---][---][---][---][---][---][---][---][---][---][---][---][---][---][---][---][---][---][---][---][---][---][---][---][---][---][---][---][---][---][---][---][---][---][---][---][---][---][---][---][---][---][---][---][---][---][---][---][---][---][---][---][---][---][---][---][---][---][---][---][---][---][---][---][---][---][---][---][---][---][---][---][---][---][---][---][---][---][---][---][---][---][---][---][---][---][---][---][---][---][---][---][---][---][---][---][---][---][---][---][---][---][---][---][---][---][---][---][---][---][---][---][---][---][---][---][---][---][---][---][---][---][---][---][---][---][---][---][---][---][---][---][---][---][---][---][---][---][---][---][---][---][---][---][---][---][---][---][---][---][---][---][---][---][---][---][---][---][---][---][---][---][---][---][---][---][---][---][---][---][---][---][---][---][---][---][---][---][---][---][---][---][---][---][---][---][---][---][---][---][---][---][---][---][---][---][---][---][---][---]
[1,0][---][---][---][---][---][---][---][---][---][---][---][---][---][---][---][---][---][---][---][---][---][---][---][---][---][---][---][---][---][---][---][---][---][---][---][---][---][---][---][---][---][---][---][---][---][---][---][---][---][---][---][---][---][---][---][---][---][---][---][---][---][---][---][---][---][---][---][---][---][---][---][---][---][---][---][---][---][---][---][---][---][---][---][---][---][---][---][---][---][---][---][---][---][---][---][---][---][---][---][---][---][---][---][---][---][---][---][---][---][---][---][---][---][---][---][---][---][---][---][---][---][---][---][---][---][---][---][---][---][---][---][---][---][---][---][---][---][---][---][---][---][---][---][---][---][---][---][---][---][---][---][---][---][---][---][---][---][---][---][---][---][---][---][---][---][---][---][---][---][---][---][---][---][---][---][---][---][---][---][---][---][---][---][---][---][---][---][---][---][---][---][---][---][---][---][---][---][---][---][---][---][---][---][---][---][---][---][---][---][---]
[1,0][---][---][---][---][---][---][---][---][---][---][---][---][---][---][---][---][---][---][---][---][---][---][---][---][---][---][---][---][---][---][---][---][---][---][---][---][---][---][---][---][---][---][---][---][---][---][---][---][---][---][---][---][---][---][---][---][---][---][---][---][---][---][---][---][---][---][---][---][---][---][---][---][---][---][---][---][---][---][---][---][---][---][---][---][---][---][---][---][---][---][---][---][---][---][---][---][---][---][---][---][---][---][---][---][---][---][---][---][---][---][---][---][---][---][---][---][---][---][---][---][---][---][---][---][---][---][---][---][---][---][---][---][---][---][---][---][---][---][---][---][---][---][---][---][---][---][---][---][---][---][---][---][---][---][---][---][---][---][---][---][---][---][---][---][---][---][---][---][---][---][---][---][---][---][---][---][---][---][---][---][---][---][---][---][---][---][---][---][---][---][---][---][---][---][---][---][---][---][---][---][---][---][---][---][---][---][---][---][---][---]
[1,0][---][---][---][---][---][---][---][---][---][---][---][---][---][---][---][---][---][---][---][---][---][---][---][---][---][---][---][---][---][---][---][---][---][---][---][---][---][---][---][---][---][---][---][---][---][---][---][---][---][---][---][---][---][---][---][---][---][---][---][---][---][---][---][---][---][---][---][---][---][---][---][---][---][---][---][---][---][---][---][---][---][---][---][---][---][---][---][---][---][---][---][---][---][---][---][---][---][---][---][---][---][---][---][---][---][---][---][---][---][---][---][---][---][---][---][---][---][---][---][---][---][---][---][---][---][---][---][---][---][---][---][---][---][---][---][---][---][---][---][---][---][---][---][---][---][---][---][---][---][---][---][---][---][---][---][---][---][---][---][---][---][---][---][---][---][---][---][---][---][---][---][---][---][---][---][---][---][---][---][---][---][---][---][---][---][---][---][---][---][---][---][---][---][---][---][---][---][---][---][---][---][---][---][---][---][---][---][---][---][---]
[1,0][---][---][---][---][---][---][---][---][---][---][---][---][---][---][---][---][---][---][---][---][---][---][---][---][---][---][---][---][---][---][---][---][---][---][---][---][---][---][---][---][---][---][---][---][---][---][---][---][---][---][---][---][---][---][---][---][---][---][---][---][---][---][---][---][---][---][---][---][---][---][---][---][---][---][---][---][---][---][---][---][---][---][---][---][---][---][---][---][---][---][---][---][---][---][---][---][---][---][---][---][---][---][---][---][---][---][---][---][---][---][---][---][---][---][---][---][---][---][---][---][---][---][---][---][---][---][---][---][---][---][---][---][---][---][---][---][---][---][---][---][---][---][---][---][---][---][---][---][---][---][---][---][---][---][---][---][---][---][---][---][---][---][---][---][---][---][---][---][---][---][---][---][---][---][---][---][---][---][---][---][---][---][---][---][---][---][---][---][---][---][---][---][---][---][---][---][---][---][---][---][---][---][---][---][---][---][---][---][---][---]
[1,0][---][---][---][---][---][---][---][---][---][---][---][---][---][---][---][---][---][---][---][---][---][---][---][---][---][---][---][---][---][---][---][---][---][---][---][---][---][---][---][---][---][---][---][---][---][---][---][---][---][---][---][---][---][---][---][---][---][---][---][---][---][---][---][---][---][---][---][---][---][---][---][---][---][---][---][---][---][---][---][---][---][---][---][---][---][---][---][---][---][---][---][---][---][---][---][---][---][---][---][---][---][---][---][---][---][---][---][---][---][---][---][---][---][---][---][---][---][---][---][---][---][---][---][---][---][---][---][---][---][---][---][---][---][---][---][---][---][---][---][---][---][---][---][---][---][---][---][---][---][---][---][---][---][---][---][---][---][---][---][---][---][---][---][---][---][---][---][---][---][---][---][---][---][---][---][---][---][---][---][---][---][---][---][---][---][---][---][---][---][---][---][---][---][---][---][---][---][---][---][---][---][---][---][---][---][---][---][---][---][---]
[1,0][---][---][---][---][---][---][---][---][---][---][---][---][---][---][---][---][---][---][---][---][---][---][---][---][---][---][---][---][---][---][---][---][---][---][---][---][---][---][---][---][---][---][---][---][---][---][---][---][---][---][---][---][---][---][---][---][---][---][---][---][---][---][---][---][---][---][---][---][---][---][---][---][---][---][---][---][---][---][---][---][---][---][---][---][---][---][---][---][---][---][---][---][---][---][---][---][---][---][---][---][---][---][---][---][---][---][---][---][---][---][---][---][---][---][---][---][---][---][---][---][---][---][---][---][---][---][---][---][---][---][---][---][---][---][---][---][---][---][---][---][---][---][---][---][---][---][---][---][---][---][---][---][---][---][---][---][---][---][---][---][---][---][---][---][---][---][---][---][---][---][---][---][---][---][---][---][---][---][---][---][---][---][---][---][---][---][---][---][---][---][---][---][---][---][---][---][---][---][---][---][---][---][---][---][---][---][---][---][---][---]
[1,0][---][---][---][---][---][---][---][---][---][---][---][---][---][---][---][---][---][---][---][---][---][---][---][---][---][---][---][---][---][---][---][---][---][---][---][---][---][---][---][---][---][---][---][---][---][---][---][---][---][---][---][---][---][---][---][---][---][---][---][---][---][---][---][---][---][---][---][---][---][---][---][---][---][---][---][---][---][---][---][---][---][---][---][---][---][---][---][---][---][---][---][---][---][---][---][---][---][---][---][---][---][---][---][---][---][---][---][---][---][---][---][---][---][---][---][---][---][---][---][---][---][---][---][---][---][---][---][---][---][---][---][---][---][---][---][---][---][---][---][---][---][---][---][---][---][---][---][---][---][---][---][---][---][---][---][---][---][---][---][---][---][---][---][---][---][---][---][---][---][---][---][---][---][---][---][---][---][---][---][---][---][---][---][---][---][---][---][---][---][---][---][---][---][---][---][---][---][---][---][---][---][---][---][---][---][---][---][---][---][---]
[1,0][---][---][---][---][---][---][---][---][---][---][---][---][---][---][---][---][---][---][---][---][---][---][---][---][---][---][---][---][---][---][---][---][---][---][---][---][---][---][---][---][---][---][---][---][---][---][---][---][---][---][---][---][---][---][---][---][---][---][---][---][---][---][---][---][---][---][---][---][---][---][---][---][---][---][---][---][---][---][---][---][---][---][---][---][---][---][---][---][---][---][---][---][---][---][---][---][---][---][---][---][---][---][---][---][---][---][---][---][---][---][---][---][---][---][---][---][---][---][---][---][---][---][---][---][---][---][---][---][---][---][---][---][---][---][---][---][---][---][---][---][---][---][---][---][---][---][---][---][---][---][---][---][---][---][---][---][---][---][---][---][---][---][---][---][---][---][---][---][---][---][---][---][---][---][---][---][---][---][---][---][---][---][---][---][---][---][---][---][---][---][---][---][---][---][---][---][---][---][---][---][---][---][---][---][---][---][---][---][---][---]
[1,0][---][---][---][---][---][---][---][---][---][---][---][---][---][---][---][---][---][---][---][---][---][---][---][---][---][---][---][---][---][---][---][---][---][---][---][---][---][---][---][---][---][---][---][---][---][---][---][---][---][---][---][---][---][---][---][---][---][---][---][---][---][---][---][---][---][---][---][---][---][---][---][---][---][---][---][---][---][---][---][---][---][---][---][---][---][---][---][---][---][---][---][---][---][---][---][---][---][---][---][---][---][---][---][---][---][---][---][---][---][---][---][---][---][---][---][---][---][---][---][---][---][---][---][---][---][---][---][---][---][---][---][---][---][---][---][---][---][---][---][---][---][---][---][---][---][---][---][---][---][---][---][---][---][---][---][---][---][---][---][---][---][---][---][---][---][---][---][---][---][---][---][---][---][---][---][---][---][---][---][---][---][---][---][---][---][---][---][---][---][---][---][---][---][---][---][---][---][---][---][---][---][---][---][---][---][---][---][---][---][---]
[1,0][---][---][---][---][---][---][---][---][---][---][---][---][---][---][---][---][---][---][---][---][---][---][---][---][---][---][---][---][---][---][---][---][---][---][---][---][---][---][---][---][---][---][---][---][---][---][---][---][---][---][---][---][---][---][---][---][---][---][---][---][---][---][---][---][---][---][---][---][---][---][---][---][---][---][---][---][---][---][---][---][---][---][---][---][---][---][---][---][---][---][---][---][---][---][---][---][---][---][---][---][---][---][---][---][---][---][---][---][---][---][---][---][---][---][---][---][---][---][---][---][---][---][---][---][---][---][---][---][---][---][---][---][---][---][---][---][---][---][---][---][---][---][---][---][---][---][---][---][---][---][---][---][---][---][---][---][---][---][---][---][---][---][---][---][---][---][---][---][---][---][---][---][---][---][---][---][---][---][---][---][---][---][---][---][---][---][---][---][---][---][---][---][---][---][---][---][---][---][---][---][---][---][---][---][---][---][---][---][---][---]
[---][---][---][---][---][---][---][---][---][---][---][---][---][---][---][---][---][---][---][---][---][---][---][---][---][---][---][---][---][---][---][---][---][---][---][---][---][---][---][---][---][---][---][---][---][---][---][---][---][---][---][---][---][---][---][---][---][---][---][---][---][---][---][---][---][---][---][---][---][---][---][---][---][---][---][---][---][---][---][---][---][---][---][---][---][---][---][---][---][---][---][---][---][---][---][---][---][---][---][---][---][---][---][---][---][---][---][---][---][---][---][---][---][---][---][---][---][---][---][---][---][---][---][---][---][---][---][---][---][---][---][---][---][---][---][---][---][---][---][---][---][---][---][---][---][---][---][---][---][---][---][---][---][---][---][---][---][---][---][---][---][---][---][---][---][---][---][---][---][---][---][---][---][---][---][---][---][---][---][---][---][---][---][---][---][---][---][---][---][---][---][---][---][---][---][---][---][---][---][---][---][---][---][---][---][---][---][---][---][---][---]
[---][---][---][---][---][---][---][---][---][---][---][---][---][---][---][---][---][---][---][---][---][---][---][---][---][---][---][---][---][---][---][---][---][---][---][---][---][---][---][---][---][---][---][---][---][---][---][---][---][---][---][---][---][---][---][---][---][---][---][---][---][---][---][---][---][---][---][---][---][---][---][---][---][---][---][---][---][---][---][---][---][---][---][---][---][---][---][---][---][---][---][---][---][---][---][---][---][---][---][---][---][---][---][---][---][---][---][---][---][---][---][---][---][---][---][---][---][---][---][---][---][---][---][---][---][---][---][---][---][---][---][---][---][---][---][---][---][---][---][---][---][---][---][---][---][---][---][---][---][---][---][---][---][---][---][---][---][---][---][---][---][---][---][---][---][---][---][---][---][---][---][---][---][---][---][---][---][---][---][---][---][---][---][---][---][---][---][---][---][---][---][---][---][---][---][---][---][---][---][---][---][---][---][---][---][---][---][---][---][---][---]
[---][---][---][---][---][---][---][---][---][---][---][---][---][---][---][---][---][---][---][---][---][---][---][---][---][---][---][---][---][---][---][---][---][---][---][---][---][---][---][---][---][---][---][---][---][---][---][---][---][---][---][---][---][---][---][---][---][---][---][---][---][---][---][---][---][---][---][---][---][---][---][---][---][---][---][---][---][---][---][---][---][---][---][---][---][---][---][---][---][---][---][---][---][---][---][---][---][---][---][---][---][---][---][---][---][---][---][---][---][---][---][---][---][---][---][---][---][---][---][---][---][---][---][---][---][---][---][---][---][---][---][---][---][---][---][---][---][---][---][---][---][---][---][---][---][---][---][---][---][---][---][---][---][---][---][---][---][---][---][---][---][---][---][---][---][---][---][---][---][---][---][---][---][---][---][---][---][---][---][---][---][---][---][---][---][---][---][---][---][---][---][---][---][---][---][---][---][---][---][---][---][---][---][---][---][---][---][---][---][---][---]
[---][---][---][---][---][---][---][---][---][---][---][---][---][---][---][---][---][---][---][---][---][---][---][---][---][---][---][---][---][---][---][---][---][---][---][---][---][---][---][---][---][---][---][---][---][---][---][---][---][---][---][---][---][---][---][---][---][---][---][---][---][---][---][---][---][---][---][---][---][---][---][---][---][---][---][---][---][---][---][---][---][---][---][---][---][---][---][---][---][---][---][---][---][---][---][---][---][---][---][---][---][---][---][---][---][---][---][---][---][---][---][---][---][---][---][---][---][---][---][---][---][---][---][---][---][---][---][---][---][---][---][---][---][---][---][---][---][---][---][---][---][---][---][---][---][---][---][---][---][---][---][---][---][---][---][---][---][---][---][---][---][---][---][---][---][---][---][---][---][---][---][---][---][---][---][---][---][---][---][---][---][---][---][---][---][---][---][---][---][---][---][---][---][---][---][---][---][---][---][---][---][---][---][---][---][---][---][---][---][---][---]
[---][---][---][---][---][---][---][---][---][---][---][---][---][---][---][---][---][---][---][---][---][---][4,0][---][---][---][---][---][---][---][---][---][---][---][---][---][---][---][---][---][---][---][---][---][---][---][---][---][---][---][---][---][---][---][---][---][---][---][---][---][---][---][---][---][---][---][---][---][---][---][---][---][---][---][---][---][---][---][---][---][1,0][1,0][1,0][1,0][1,0][1,0][1,0][1,0][---][---][---][1,0][1,0][1,0][4,0][---][---][---][---][---][---][---][---][---][---][---][---][---][---][9,0][---][---][---][---][---][---][---][---][---][---][---][1,0][1,0][1,0][---][---][---][---][1,0][4,0][4,0][1,0][---][---][---][---][---][---][---][---][---][---][---][---][---][---][---][---][---][---][---][---][---][---][---][---][---][---][---][---][---][---][---][---][---][---][---][---][---][---][---][---][---][---][---][---][---][---][---][---][---][---][---][---][---][---][---][---][11,0][11,0][---][---][---][---][---][---][---][---][---][---][---][---][---][---][---][---][---][---][---][---][---]
[---][---][---][---][---][---][---][---][---][---][---][---][---][---][---][---][---][---][---][---][---][---][---][---][---][---][---][---][---][---][---][---][---][---][---][---][---][---][---][---][---][---][---][---][---][---][---][---][---][---][---][---][---][---][---][---][---][---][---][---][---][---][---][---][---][---][---][---][---][---][---][---][---][---][---][---][---][---][---][---][---][---][---][---][---][---][---][---][---][---][---][---][---][---][---][---][---][---][---][---][---][---][---][---][---][---][---][---][---][---][---][---][---][---][---][---][---][---][---][---][---][---][---][---][---][---][---][---][---][---][---][---][---][---][---][---][---][---][---][---][---][---][---][---][---][---][---][---][---][---][---][---][---][---][---][---][---][---][---][---][---][---][---][---][---][---][---][---][---][---][---][---][---][---][---][---][---][---][---][---][---][---][---][---][---][---][---][11,0][11,0][11,0][---][---][---][---][---][---][---][---][---][---][---][---][---][---][---][---][---][---][---][---][---]
[---][---][---][---][---][---][---][---][---][---][---][---][---][---][---][---][---][---][---][---][---][---][---][---][---][---][---][---][---][---][---][---][---][---][---][---][---][---][---][---][---][---][---][---][---][---][---][---][---][---][---][---][---][---][---][---][---][---][---][---][---][---][---][---][---][---][---][---][---][---][---][---][---][---][---][---][---][---][---][---][---][---][---][---][---][---][---][---][---][---][---][---][---][---][---][---][---][---][---][---][---][---][---][---][---][---][---][---][---][---][---][---][---][---][---][---][---][---][---][---][---][---][---][---][---][---][---][---][---][---][---][---][---][---][---][---][---][---][---][---][---][---][---][---][---][---][---][---][---][---][---][---][---][---][---][---][---][---][---][---][---][---][---][---][---][---][---][---][---][---][---][---][---][---][---][---][---][---][---][---][---][---][---][---][---][---][11,0][11,0][11,0][11,0][---][---][---][---][---][---][---][---][---][---][---][---][---][---][---][---][---][---][---][---][---]
[---][---][---][---][---][---][---][---][---][---][---][---][---][---][---][---][---][---][---][---][---][---][---][---][---][---][---][---][---][---][---][---][---][---][---][---][---][---][---][---][---][---][---][---][---][---][---][---][---][---][---][---][---][---][---][---][---][---][---][---][---][---][---][---][---][---][---][---][---][---][---][---][---][---][---][---][---][---][---][---][---][---][---][---][---][---][---][---][---][---][---][---][---][---][---][---][---][---][---][---][---][---][---][---][---][---][---][---][---][---][---][---][---][---][---][---][---][---][---][---][---][---][---][---][---][---][---][---][---][---][---][---][---][---][---][---][---][---][---][---][---][---][---][---][---][---][---][---][---][---][---][---][---][---][---][---][---][---][---][---][---][---][---][---][---][---][---][---][---][---][---][---][---][---][---][---][---][---][---][---][---][---][---][---][---][11,0][11,0][11,0][11,0][11,0][---][---][---][---][---][---][---][---][---][---][---][---][---][---][---][---][---][---][---][---][---]
[---][---][---][---][---][---][---][---][---][---][---][---][---][---][---][---][4,0][---][---][---][1,0][9,0][1,0][4,0][1,0][---][---][---][---][---][---][---][---][---][---][---][---][---][---][---][---][---][---][---][---][---][12,0][13,0][---][---][---][---][---][---][---][---][---][12,0][13,0][---][---][---][7,0][---][---][---][---][---][---][---][---][---][---][---][---][---][---][1,0][9,0][1,0][---][---][---][---][---][---][---][---][---][---][---][---][---][---][8,0][---][---][---][---][---][1,0][1,0][---][---][---][---][4,0][---][---][4,0][---][---][4,0][---][---][---][---][---][1,0][---][---][---][---][---][---][---][---][---][---][1,0][1,0][---][---][---][---][---][---][11,0][---][---][11,0][---][---][---][---][---][---][---][---][---][---][11,0][11,0][---][---][11,0][11,0][---][---][---][---][---][---][---][---][---][---][---][1,0][1,0][4,0][1,0][---][---][---][---][---][---][---][---][---][---][---][---][11,0][11,0][11,0][11,0][11,0][11,0][---][---][---][---][---][---][---][---][---][---][---][---][---][---][---][---][---][---][---][---][---]
[---][---][---][---][---][---][---][---][---][---][---][---][---][---][---][---][---][---][---][---][---][---][---][---][---][---][---][---][---][---][---][---][---][---][---][---][---][---][12,0][13,0][---][---][---][---][---][---][14,0][15,0][---][---][---][---][---][---][---][---][---][14,0][15,0][---][---][---][---][---][---][---][---][---][---][---][---][---][---][---][---][---][---][---][---][---][---][---][---][---][---][---][---][---][---][---][---][---][---][---][---][---][---][---][---][---][---][---][---][---][---][---][---][---][---][---][---][---][---][---][---][---][---][---][---][---][---][---][---][---][---][---][---][---][---][---][---][---][---][---][---][---][11,0][11,0][---][---][11,0][11,0][---][---][---][---][---][---][---][---][11,0][11,0][11,0][---][---][11,0][11,0][11,0][---][---][---][---][---][---][---][---][---][---][---][---][---][---][---][---][---][---][---][---][---][---][---][---][---][11,0][11,0][11,0][11,0][11,0][11,0][11,0][---][---][---][---][---][---][---][---][---][---][---][---][---][---][---][---][---][---][---][---][---]
[---][---][---][---][---][---][---][---][---][---][---][---][---][---][---][---][---][---][---][---][---][---][---][---][---][---][---][---][12,0][13,0][---][---][---][---][---][---][---][---][14,0][15,0][---][---][---][---][---][---][14,0][15,0][---][---][---][---][---][---][---][---][---][14,0][15,0][---][---][---][---][---][---][---][---][---][---][---][---][---][---][---][---][---][---][---][---][---][---][---][---][---][---][---][---][---][---][---][---][---][---][---][---][---][---][---][---][---][---][---][---][---][---][---][---][---][---][---][---][---][---][---][---][---][---][---][---][---][---][---][---][---][---][---][---][---][---][---][---][---][---][---][---][11,0][11,0][11,0][---][---][11,0][11,0][11,0][---][---][---][---][---][---][11,0][11,0][11,0][11,0][---][---][11,0][11,0][11,0][11,0][---][---][---][---][12,0][13,0][---][---][---][---][---][---][---][---][---][---][---][---][---][---][12,0][13,0][---][11,0][11,0][11,0][11,0][11,0][11,0][11,0][11,0][---][---][---][---][---][---][---][---][---][---][---][---][---][---][---][---][---][---][---][---][---]
[---][---][---][---][---][---][---][---][---][---][---][---][---][---][---][---][---][---][---][---][---][---][---][---][---][---][---][---][14,0][15,0][---][---][---][---][---][---][---][---][14,0][15,0][---][---][---][---][---][---][14,0][15,0][---][---][---][---][---][---][---][---][---][14,0][15,0][---][---][---][---][---][---][---][---][---][---][---][---][---][---][---][---][---][---][---][---][---][---][---][---][---][---][---][---][---][---][---][---][---][---][---][---][---][---][---][---][---][---][---][---][---][---][---][---][---][---][---][---][---][---][---][---][---][---][---][---][---][---][---][---][---][---][---][---][---][---][---][---][---][---][---][11,0][11,0][11,0][11,0][---][---][11,0][11,0][11,0][11,0][---][---][---][---][11,0][11,0][11,0][11,0][11,0][---][---][11,0][11,0][11,0][11,0][11,0][---][---][---][14,0][15,0][---][---][---][---][---][---][---][---][---][---][---][---][---][---][14,0][15,0][11,0][11,0][11,0][11,0][11,0][11,0][11,0][11,0][11,0][---][---][---][---][---][---][---][---][11,0][---][---][---][---][---][---][---][---][---][---][---][---]
[0,0][0,0][0,0][0,0][0,0][0,0][0,0][0,0][0,0][0,0][0,0][0,0][0,0][0,0][0,0][0,0][0,0][0,0][0,0][0,0][0,0][0,0][0,0][0,0][0,0][0,0][0,0][0,0][0,0][0,0][0,0][0,0][0,0][0,0][0,0][0,0][0,0][0,0][0,0][0,0][0,0][0,0][0,0][0,0][0,0][0,0][0,0][0,0][0,0][0,0][0,0][0,0][0,0][0,0][0,0][0,0][0,0][0,0][0,0][0,0][0,0][0,0][0,0][0,0][0,0][0,0][0,0][0,0][0,0][---][---][0,0][0,0][0,0][0,0][0,0][0,0][0,0][0,0][0,0][0,0][0,0][0,0][0,0][0,0][0,0][---][---][---][0,0][0,0][0,0][0,0][0,0][0,0][0,0][0,0][0,0][0,0][0,0][0,0][0,0][0,0][0,0][0,0][0,0][0,0][0,0][0,0][0,0][0,0][0,0][0,0][0,0][0,0][0,0][0,0][0,0][0,0][0,0][0,0][0,0][0,0][0,0][0,0][0,0][0,0][0,0][0,0][0,0][0,0][0,0][0,0][0,0][0,0][0,0][0,0][0,0][0,0][0,0][0,0][0,0][0,0][0,0][0,0][0,0][0,0][0,0][0,0][0,0][0,0][0,0][0,0][---][---][0,0][0,0][0,0][0,0][0,0][0,0][0,0][0,0][0,0][0,0][0,0][0,0][0,0][0,0][0,0][0,0][0,0][0,0][0,0][0,0][0,0][0,0][0,0][0,0][0,0][0,0][0,0][0,0][0,0][0,0][0,0][0,0][0,0][0,0][0,0][0,0][0,0][0,0][0,0][0,0][0,0][0,0][0,0][0,0][0,0][0,0][0,0][0,0][0,0][0,0][0,0][0,0][0,0][0,0][0,0][0,0][0,0]
[1,0][---][---][---][---][---][---][---][---][---][---][---][---][---][---][---][---][---][---][---][---][---][---][---][---][---][---][---][---][---][---][---][---][---][---][---][---][---][---][---][---][---][---][---][---][---][---][---][---][---][---][---][---][---][---][---][---][---][---][---][---][---][---][---][---][---][---][---][---][---][---][---][---][---][---][---][---][---][---][---][---][---][---][---][---][---][---][---][---][---][---][---][---][---][---][---][---][---][---][---][---][---][---][---][---][---][---][---][---][---][---][---][---][---][---][---][---][---][---][---][---][---][---][---][---][---][---][---][---][---][---][---][---][---][---][---][---][---][---][---][---][---][---][---][---][---][---][---][---][---][---][---][---][---][---][---][---][---][---][---][---][---][---][---][---][---][---][---][---][---][---][---][---][---][---][---][---][---][---][---][---][---][---][---][---][---][---][---][---][---][---][---][---][---][---][---][---][---][---][---][---][---][---][---][---][---][---][---][---][---][---]
[1,0][---][---][---][---][---][---][---][---][---][---][---][---][---][---][---][---][---][---][---][---][---][---][---][---][---][---][---][---][---][---][---][---][---][---][---][---][---][---][---][---][---][---][---][---][---][---][---][---][---][---][---][---][---][---][---][---][---][---][---][---][---][---][---][---][---][---][---][---][---][---][---][---][---][---][---][---][---][---][---][---][---][---][---][---][---][---][---][---][---][---][---][---][---][---][---][---][---][---][---][---][---][---][---][---][---][---][---][---][---][---][---][---][---][---][---][---][---][---][---][---][---][---][---][---][---][---][---][---][---][---][---][---][---][---][---][---][---][---][---][---][---][---][---][---][---][---][---][---][---][---][---][---][---][---][---][---][---][---][---][---][---][---][---][---][---][---][---][---][---][---][---][---][---][---][---][---][---][---][---][---][---][---][---][---][---][---][---][---][---][---][---][---][---][---][---][---][---][---][---][---][---][---][---][---][---][---][---][---][---][---]
[1,0][---][---][---][---][---][---][---][---][---][---][---][---][---][---][---][---][---][---][---][---][---][---][---][---][---][---][---][---][---][---][---][---][---][---][---][---][---][---][---][---][---][---][---][---][---][---][---][---][---][---][---][---][---][---][---][---][---][---][---][---][---][---][---][---][---][---][---][---][---][---][---][---][---][---][---][---][---][---][---][---][---][---][---][---][---][---][---][---][---][---][---][---][---][---][---][---][---][---][---][---][---][---][---][---][---][---][---][---][---][---][---][---][---][---][---][---][---][---][---][---][---][---][---][---][---][---][---][---][---][---][---][---][---][---][---][---][---][---][---][---][---][---][---][---][---][---][---][---][---][---][---][---][---][---][---][---][---][---][---][---][---][---][---][---][---][---][---][---][---][---][---][---][---][---][---][---][---][---][---][---][---][---][---][---][---][---][---][---][---][---][---][---][---][---][---][---][---][---][---][---][---][---][---][---][---][---][---][---][---][---]
[1,0][---][---][---][---][---][---][---][---][---][---][---][---][---][---][---][---][---][---][---][---][---][---][---][---][---][---][---][---][---][---][---][---][---][---][---][---][---][---][---][---][---][---][---][---][---][---][---][---][---][---][---][---][---][---][---][---][---][---][---][---][---][---][---][---][---][---][---][---][---][---][---][---][---][---][---][---][---][---][---][---][---][---][---][---][---][---][---][---][---][---][---][---][---][---][---][---][---][---][---][---][---][---][---][---][---][---][---][---][---][---][---][---][---][---][---][---][---][---][---][---][---][---][---][---][---][---][---][---][---][---][---][---][---][---][---][---][---][---][---][---][---][---][---][---][---][---][---][---][---][---][---][---][---][---][---][---][---][---][---][---][---][---][---][---][---][---][---][---][---][---][---][---][---][---][---][---][---][---][---][---][---][---][---][---][---][---][---][---][---][---][---][---][---][---][---][---][---][---][---][---][---][---][---][---][---][---][---][---][---][---]
[1,0][---][---][---][---][---][---][---][---][---][---][---][---][---][---][---][---][---][---][---][---][---][---][---][---][---][---][---][---][---][---][---][---][---][---][---][---][---][---][---][---][---][---][---][---][---][---][---][---][---][---][---][---][---][---][---][---][---][---][---][---][---][---][---][---][---][---][---][---][---][---][---][---][---][---][---][---][---][---][---][---][---][---][---][---][---][---][---][---][---][---][---][---][---][---][---][---][---][---][---][---][---][---][---][---][---][---][---][---][---][---][---][---][---][---][---][---][---][---][---][---][---][---][---][---][---][---][---][---][---][---][---][---][---][---][---][---][---][---][---][---][---][---][---][---][---][---][---][---][---][---][---][---][---][---][---][---][---][---][---][---][---][---][---][---][---][---][---][---][---][---][---][---][---][---][---][---][---][---][---][---][---][---][---][---][---][---][---][---][---][---][---][---][---][---][---][---][---][---][---][---][---][---][---][---][---][---][---][---][---][---]
[1,0][---][---][---][---][---][---][---][---][---][---][---][---][---][---][---][---][---][---][---][---][---][---][---][---][---][---][---][---][---][---][---][---][---][---][---][---][---][---][---][---][---][---][---][---][---][---][---][---][---][---][---][---][---][---][---][---][---][---][---][---][---][---][---][---][---][---][---][---][---][---][---][---][---][---][---][---][---][---][---][---][---][---][---][---][---][---][---][---][---][---][---][---][---][---][---][---][---][---][---][---][---][---][---][---][---][---][---][---][---][---][---][---][---][---][---][---][---][---][---][---][---][---][---][---][---][---][---][---][---][---][---][---][---][---][---][---][---][---][---][---][---][---][---][---][---][---][---][---][---][---][---][---][---][---][---][---][---][---][---][---][---][---][---][---][---][---][---][---][---][---][---][---][---][---][---][---][---][---][---][---][---][---][---][---][---][---][---][---][---][---][---][---][---][---][---][---][---][---][---][---][---][---][---][---][---][---][---][---][---][---]
[1,0][---][---][---][---][---][---][---][---][---][---][---][---][---][---][---][---][---][---][---][---][---][---][---][---][---][---][---][---][---][---][---][---][---][---][---][---][---][---][---][---][---][---][---][---][---][---][---][---][---][---][---][---][---][---][---][---][---][---][---][---][---][---][---][---][---][---][---][---][---][---][---][---][---][---][---][---][---][---][---][---][---][---][---][---][---][---][---][---][---][---][---][---][---][---][---][---][---][---][---][---][---][---][---][---][---][---][---][---][---][---][---][---][---][---][---][---][---][---][---][---][---][---][---][---][---][---][---][---][---][---][---][---][---][---][---][---][---][---][---][---][---][---][---][---][---][---][---][---][---][---][---][---][---][---][---][---][---][---][---][---][---][---][---][---][---][---][---][---][---][---][---][---][---][---][---][---][---][---][---][---][---][---][---][---][---][---][---][---][---][---][---][---][---][---][---][---][---][---][---][---][---][---][---][---][---][---][---][---][---][---]
[1,0][---][---][---][---][---][---][---][---][---][---][---][---][---][---][---][---][---][---][---][---][---][---][---][---][---][---][---][---][---][---][---][---][---][---][---][---][---][---][---][---][---][---][---][---][---][---][---][---][---][---][---][---][---][---][---][---][---][---][---][---][---][---][---][---][---][---][---][---][---][---][---][---][---][---][---][---][---][---][---][---][---][---][---][---][---][---][---][---][---][---][---][---][---][---][---][---][---][---][---][---][---][---][---][---][---][---][---][---][---][---][---][---][---][---][---][---][---][---][---][---][---][---][---][---][---][---][---][---][---][---][---][---][---][---][---][---][---][---][---][---][---][---][---][---][---][---][---][---][---][---][---][---][---][---][---][---][---][---][---][---][---][---][---][---][---][---][---][---][---][---][---][---][---][---][---][---][---][---][---][---][---][---][---][---][---][---][---][---][---][---][---][---][---][---][---][---][---][---][---][---][---][---][---][---][---][---][---][---][---][---]
Load=[EndLayer]

EndLoad=[Layer1]